-160 312 -8 -16 464
96 -8 -88 776
-80 -16 256 -120 -216 264
-56 24 -8 296 -160 408
160 -8 128 -120 -24 512
-32 128 -16 792
16 -64 -32 -24 -16 -32 -24 728
-96 -32 -8 24 -16 -40 728
320 -8 -24 -48 -48 -24 472
104 -8 864
